{"data": [{"type": "filing", "attributes": {"period_end": "2020-12-31", "sha256": "efd83933387621614d796dc9d7da2512a87ff6338c94c2105614f3cf1d9c1a9f", "country": "UA", "package_url": null, "fxo_id": "EDRPOU-32033791-2020-12-31-UAIFRS-UA-0", "date_added": "2023-11-09 18:26:01.957777", "processed": "2023-11-14 15:49:47.074643", "json_url": "/EDRPOU-32033791/2020-12-31/UAIFRS/UA/0/32033791-2020-12-31.json", "viewer_url": "/EDRPOU-32033791/2020-12-31/UAIFRS/UA/0/ixbrlviewer.html", "warning_count": 0, "report_url": "/EDRPOU-32033791/2020-12-31/UAIFRS/UA/0/32033791-2020-12-31.html", "error_count": 0, "inconsistency_count": 0}, "relationships": {"entity": {"links": {"related": "/api/entities/32033791"}}, "validation_messages": {"links": {"related": "/api/filings/9986/validation_messages"}}}, "id": "9986", "links": {"self": "/api/filings/9986"}}, {"type": "filing", "attributes": {"period_end": "2020-12-31", "sha256": "56c1dfbfd266c2ca44db2d62d21834c90edd575ba4faf944334664798fa6a1e1", "country": "UA", "package_url": null, "fxo_id": "EDRPOU-31729918-2020-12-31-UAIFRS-UA-0", "date_added": "2023-11-09 18:25:46.878460", "processed": "2023-11-14 15:49:59.157491", "json_url": "/EDRPOU-31729918/2020-12-31/UAIFRS/UA/0/31729918-2020-12-31.json", "viewer_url": "/EDRPOU-31729918/2020-12-31/UAIFRS/UA/0/ixbrlviewer.html", "warning_count": 0, "report_url": "/EDRPOU-31729918/2020-12-31/UAIFRS/UA/0/31729918-2020-12-31.html", "error_count": 0, "inconsistency_count": 0}, "relationships": {"entity": {"links": {"related": "/api/entities/31729918"}}, "validation_messages": {"links": {"related": "/api/filings/9963/validation_messages"}}}, "id": "9963", "links": {"self": "/api/filings/9963"}}], "links": {"self": "https://filings.xbrl.org/api/filings?page%5Bsize%5D=2", "first": "https://filings.xbrl.org/api/filings?page%5Bsize%5D=2", "last": "https://filings.xbrl.org/api/filings?page%5Bsize%5D=2&page%5Bnumber%5D=12479", "next": "https://filings.xbrl.org/api/filings?page%5Bsize%5D=2&page%5Bnumber%5D=2"}, "meta": {"count": 24958}, "jsonapi": {"version": "1.0"}}